<?xml version="1.0" encoding="utf-8"?>
<!-- Generator: Adobe Illustrator 23.0.2, SVG Export Plug-In . SVG Version: 6.00 Build 0)  -->
<!DOCTYPE svg PUBLIC "-//W3C//DTD SVG 1.1//EN" "http://www.w3.org/Graphics/SVG/1.1/DTD/svg11.dtd" [
	<!ENTITY ns_extend "http://ns.adobe.com/Extensibility/1.0/">
	<!ENTITY ns_ai "http://ns.adobe.com/AdobeIllustrator/10.0/">
	<!ENTITY ns_graphs "http://ns.adobe.com/Graphs/1.0/">
	<!ENTITY ns_vars "http://ns.adobe.com/Variables/1.0/">
	<!ENTITY ns_imrep "http://ns.adobe.com/ImageReplacement/1.0/">
	<!ENTITY ns_sfw "http://ns.adobe.com/SaveForWeb/1.0/">
	<!ENTITY ns_custom "http://ns.adobe.com/GenericCustomNamespace/1.0/">
	<!ENTITY ns_adobe_xpath "http://ns.adobe.com/XPath/1.0/">
]>
<svg version="1.1" xmlns:x="&ns_extend;" xmlns:i="&ns_ai;" xmlns:graph="&ns_graphs;"
	 xmlns="http://www.w3.org/2000/svg" xmlns:xlink="http://www.w3.org/1999/xlink" x="0px" y="0px" viewBox="0 0 566.93 566.93"
	 style="enable-background:new 0 0 566.93 566.93;" xml:space="preserve">
<style type="text/css">
	.st0{fill:#00A79D;}
	.st1{fill:#FFFFFF;}
	.st2{fill:#B11116;}
	.st3{fill:none;stroke:#000000;stroke-width:5;stroke-miterlimit:10;}
	.st4{clip-path:url(#SVGID_2_);}
	.st5{clip-path:url(#SVGID_4_);}
	.st6{clip-path:url(#SVGID_6_);fill:none;stroke:#000000;stroke-width:5;stroke-miterlimit:10;}
	.st7{clip-path:url(#SVGID_6_);fill:#FFFFFF;}
	.st8{clip-path:url(#SVGID_6_);fill:none;stroke:#000000;stroke-width:8;stroke-miterlimit:10;}
	.st9{clip-path:url(#SVGID_6_);}
	.st10{fill:#FFFFFF;stroke:#000000;stroke-width:8;stroke-miterlimit:10;}
	.st11{clip-path:url(#SVGID_6_);fill:none;stroke:#000000;stroke-width:3;stroke-miterlimit:10;}
	.st12{fill:none;}
	.st13{clip-path:url(#SVGID_8_);}
	.st14{fill:#646A6F;}
	.st15{clip-path:url(#SVGID_10_);}
	.st16{fill:none;stroke:#000000;stroke-width:3;stroke-linecap:round;stroke-miterlimit:10;}
	.st17{stroke:#000000;stroke-width:1.25;stroke-miterlimit:10;}
	.st18{clip-path:url(#SVGID_12_);fill:#00A79D;}
	.st19{clip-path:url(#SVGID_14_);fill:#FFFFFF;}
	.st20{clip-path:url(#SVGID_14_);fill:none;stroke:#000000;stroke-width:4.783;stroke-miterlimit:10;}
	.st21{clip-path:url(#SVGID_14_);}
	
		.st22{clip-path:url(#SVGID_14_);fill:none;stroke:#000000;stroke-width:5.381;stroke-linecap:round;stroke-linejoin:round;stroke-miterlimit:10;}
	
		.st23{clip-path:url(#SVGID_14_);fill:none;stroke:#000000;stroke-width:16;stroke-linecap:round;stroke-linejoin:round;stroke-miterlimit:10;}
	.st24{clip-path:url(#SVGID_14_);fill:none;stroke:#B11116;stroke-width:11.959;stroke-miterlimit:10;}
	.st25{clip-path:url(#SVGID_16_);fill:#B11116;}
	.st26{clip-path:url(#SVGID_16_);fill:#FFFFFF;}
	.st27{clip-path:url(#SVGID_18_);}
	.st28{clip-path:url(#SVGID_20_);fill:#FFFFFF;}
	.st29{clip-path:url(#SVGID_20_);}
	.st30{clip-path:url(#SVGID_22_);}
	.st31{clip-path:url(#SVGID_24_);}
	.st32{clip-path:url(#SVGID_26_);}
	.st33{fill:none;stroke:#000000;stroke-width:4.783;stroke-miterlimit:10;}
	.st34{fill:none;stroke:#000000;stroke-width:16;stroke-linecap:round;stroke-linejoin:round;stroke-miterlimit:10;}
	.st35{clip-path:url(#SVGID_28_);fill:#B11116;}
	.st36{clip-path:url(#SVGID_28_);fill:#FFFFFF;}
	.st37{fill:#FFFFFF;stroke:#000000;stroke-width:4.783;stroke-miterlimit:10;}
	.st38{clip-path:url(#SVGID_30_);}
	.st39{fill:none;stroke:#000000;stroke-width:4;stroke-linecap:round;stroke-miterlimit:10;}
	.st40{stroke:#000000;stroke-miterlimit:10;}
	.st41{fill:none;stroke:#FFFFFF;stroke-width:5;stroke-miterlimit:10;}
	.st42{fill:#FFFFFF;stroke:#000000;stroke-width:9;stroke-miterlimit:10;}
</style>
<switch>
	<foreignObject requiredExtensions="&ns_ai;" x="0" y="0" width="1" height="1">
		<i:pgfRef  xlink:href="#adobe_illustrator_pgf">
		</i:pgfRef>
	</foreignObject>
	<g i:extraneous="self">
		<g id="Layer_3">
		</g>
		<g id="Layer_1">
			<circle class="st0" cx="282.49" cy="302.15" r="242.06"/>
		</g>
		<g id="Layer_2">
		</g>
		<g id="Layer_4">
			<g>
				<defs>
					<circle id="SVGID_29_" cx="282.49" cy="302.15" r="242.06"/>
				</defs>
				<clipPath id="SVGID_2_">
					<use xlink:href="#SVGID_29_"  style="overflow:visible;"/>
				</clipPath>
				<g class="st4">
					<polygon class="st1" points="268.32,485.63 360.32,454.63 404.32,509.63 390.32,599.63 268.32,606.63 262.32,546.63 					"/>
					<path class="st1" d="M245.65,321.96l-3.33-23.33l-24-49.33l-1.33-27.33l1.33-44l24-44.67l42-2l38,2
						c0,0,13.33,22.67,16.67,25.33s2.67,46.67,2.67,46.67l3.44,19.78l-0.23,17.41l-13.21,29.47l-17.33,30l-13.33,31.33l-32.67,1.33
						L245.65,321.96z"/>
					<polygon points="104.12,490.13 117.56,446.45 315.62,511.63 292.62,576.63 127.12,555.13 87.12,533.13 					"/>
					<polygon points="351.12,488.63 389.62,571.13 472.12,484.13 443.46,444.13 					"/>
					<g>
						<polygon class="st14" points="311.7,511.48 334.87,441.96 355.27,488.58 445.84,440.98 414.49,377.28 323.36,447.84 
							140.12,380.22 118.56,445.88 311.6,511.53 						"/>
					</g>
					<g>
						<path d="M121.26,447.28c-0.51,0-1.02-0.09-1.53-0.27c-2.29-0.84-3.45-3.38-2.61-5.66l21.31-57.68
							c0.84-2.29,3.38-3.45,5.66-2.61c2.29,0.84,3.45,3.38,2.61,5.66l-21.31,57.68C124.74,446.18,123.05,447.28,121.26,447.28z"/>
					</g>
					<g>
						<path d="M111.52,472.51c-0.5,0-1.01-0.09-1.51-0.27c-2.29-0.84-3.47-3.37-2.63-5.65l31.11-85.12
							c0.84-2.29,3.37-3.47,5.65-2.63c2.29,0.84,3.47,3.37,2.63,5.65l-31.11,85.12C115.01,471.4,113.32,472.51,111.52,472.51z"/>
					</g>
					<g>
						<path class="st1" d="M412.04,384.14c0,0-0.49-9.8-19.11-18.62s-55.36-9.8-60.26-12.74c-4.9-2.94-11.76-22.05-11.76-22.05
							V293.5l-3.45,0.78c-5.87,8.1-11.67,18.22-13.21,20.78c-2.2,3.67-24.5,4.65-24.5,4.65s-23.03-0.98-25.23-4.65
							c-1.56-2.59-7.5-12.88-13.44-21.11l-1.99-0.45v37.24c0,0-6.86,19.11-11.76,22.05c-4.9,2.94-41.65,3.92-60.26,12.74
							s-19.11,18.62-19.11,18.62l186.18,64.98l-3.92-0.98L412.04,384.14z"/>
						<path d="M333.25,452.69l-11.22-2.8l0.97-0.76l-178.85-62.42l0.14-2.75c0.06-1.23,1.18-12.27,21.21-21.75
							c12.16-5.76,31.17-8.25,45.05-10.06c6.32-0.83,13.47-1.76,14.93-2.52c1.94-1.16,6.55-10.21,9.95-19.53v-41.18l7.83,1.76
							l0.82,1.13c5.32,7.36,10.61,16.3,12.87,20.12l0.55,0.93c2.19,1.31,12.17,2.75,22.27,3.19c9.76-0.44,19.41-1.87,21.53-3.18
							l0.64-1.08c2.21-3.74,7.38-12.51,12.56-19.65l0.82-1.12l9.29-2.09v41.18c3.4,9.32,8.01,18.36,9.97,19.54
							c1.43,0.74,8.59,1.68,14.9,2.5c13.88,1.82,32.89,4.3,45.05,10.06c20.03,9.49,21.14,20.53,21.21,21.75l0.09,1.9l-81.68,63.89
							L333.25,452.69z M152.58,381.86l177.3,61.88l77.97-60.99c-1.18-2.74-4.91-8.43-16.49-13.91c-11.11-5.27-29.46-7.67-42.85-9.42
							c-10.29-1.35-15.34-2.06-17.73-3.49c-5.59-3.35-11.61-19.18-13.33-23.96l-0.22-0.6v-30.33c-3.82,5.72-7.29,11.6-8.98,14.46
							l-0.85,1.44c-3.22,5.37-21.48,6.17-27.49,6.44l-0.16,0.01l-0.16-0.01c-25-1.07-27.43-5.11-28.23-6.44l-0.77-1.29
							c-1.53-2.58-4.47-7.56-7.84-12.73v28.45l-0.22,0.6c-1.71,4.77-7.74,20.6-13.33,23.96c-2.39,1.43-7.44,2.14-17.73,3.49
							c-13.4,1.75-31.74,4.15-42.85,9.42C158.21,373.79,154.14,378.9,152.58,381.86z M257.31,312.74"/>
					</g>
					<g>
						<path d="M239.15,297.41c-0.22-0.36-22.3-35.79-24.28-48.67c-0.35-2.3-0.75-4.31-1.13-6.25c-1.2-6.15-2.15-11.02-0.23-17.41
							c2.08-6.94,3.77-22.1,3.79-22.25l7.31,0.81c-0.07,0.65-1.78,15.98-4.05,23.56c-1.4,4.66-0.68,8.33,0.41,13.89
							c0.37,1.92,0.8,4.1,1.18,6.54c1.22,7.96,14.33,31.63,23.25,45.89L239.15,297.41z"/>
					</g>
					<g>
						<path d="M319.46,297.41l-6.23-3.9c8.92-14.26,22.02-37.93,23.25-45.89c0.38-2.44,0.8-4.62,1.18-6.54
							c1.09-5.56,1.8-9.24,0.41-13.89c-2.28-7.58-3.98-22.91-4.05-23.56l7.31-0.81c0.02,0.15,1.7,15.31,3.79,22.25
							c1.92,6.4,0.97,11.26-0.23,17.41c-0.38,1.94-0.77,3.95-1.13,6.25C341.75,261.63,319.68,297.05,319.46,297.41z"/>
					</g>
					<g>
						<path d="M297.53,555.72c-0.5,0-1.01-0.09-1.51-0.27c-2.29-0.84-3.47-3.37-2.63-5.65l31.11-85.12
							c0.84-2.29,3.36-3.47,5.65-2.63c2.29,0.84,3.47,3.37,2.63,5.65l-31.11,85.12C301.02,554.61,299.33,555.72,297.53,555.72z"/>
					</g>
					<g>
						<path d="M308.9,514.47c-0.46,0-0.93-0.07-1.39-0.23l-187.16-62.22c-2.31-0.77-3.56-3.26-2.79-5.58
							c0.77-2.31,3.27-3.56,5.58-2.79l187.16,62.22c2.31,0.77,3.56,3.26,2.79,5.58C312.47,513.3,310.75,514.47,308.9,514.47z"/>
					</g>
					<g>
						<path d="M353.35,494.55l-22.9-45.21c-1.1-2.17-0.23-4.83,1.94-5.93c2.17-1.1,4.82-0.23,5.93,1.94l18.87,37.25l84.41-44.07
							c2.16-1.13,4.82-0.29,5.95,1.87c1.13,2.16,0.29,4.82-1.87,5.95L353.35,494.55z"/>
					</g>
					<g>
						<path d="M148.94,459.82c-0.51,0-1.02-0.09-1.53-0.27c-2.29-0.84-3.45-3.38-2.61-5.66l21.31-57.68
							c0.85-2.29,3.38-3.45,5.66-2.61c2.29,0.84,3.45,3.38,2.61,5.66l-21.31,57.68C152.42,458.71,150.73,459.82,148.94,459.82z"/>
					</g>
					<g>
						<path class="st1" d="M158.74,483.29c-0.51,0-1.02-0.09-1.53-0.27c-2.29-0.84-3.45-3.38-2.61-5.66l21.31-57.68
							c0.84-2.29,3.38-3.45,5.66-2.61c2.29,0.84,3.45,3.38,2.61,5.66l-21.31,57.68C162.22,482.19,160.53,483.29,158.74,483.29z"/>
					</g>
					<g>
						<path class="st1" d="M96.74,485.29c-0.51,0-1.02-0.09-1.53-0.27c-2.29-0.84-3.45-3.38-2.61-5.66l21.31-57.68
							c0.84-2.29,3.38-3.45,5.66-2.61c2.29,0.84,3.45,3.38,2.61,5.66l-21.31,57.68C100.22,484.19,98.53,485.29,96.74,485.29z"/>
					</g>
					<g>
						<path d="M197.93,476.47c-0.51,0-1.02-0.09-1.53-0.27c-2.29-0.84-3.45-3.38-2.61-5.66l21.31-57.68
							c0.84-2.29,3.38-3.45,5.66-2.61c2.29,0.84,3.45,3.38,2.61,5.66l-21.31,57.68C201.41,475.37,199.73,476.47,197.93,476.47z"/>
					</g>
					<g>
						<path class="st1" d="M207.73,512.44c-0.51,0-1.02-0.09-1.53-0.27c-2.29-0.84-3.45-3.38-2.61-5.66l21.31-57.68
							c0.85-2.29,3.38-3.45,5.66-2.61c2.29,0.84,3.45,3.38,2.61,5.66l-21.31,57.68C211.21,511.34,209.53,512.44,207.73,512.44z"/>
					</g>
					<g>
						<path class="st1" d="M218.73,570.44c-0.51,0-1.02-0.09-1.53-0.27c-2.29-0.84-3.45-3.38-2.61-5.66l21.31-57.68
							c0.85-2.29,3.38-3.45,5.66-2.61c2.29,0.84,3.45,3.38,2.61,5.66l-21.31,57.68C222.21,569.34,220.53,570.44,218.73,570.44z"/>
					</g>
					<g>
						<path class="st1" d="M435.07,477.72c-1.67,0-3.26-0.95-4.01-2.57l-25.72-55.85c-1.02-2.21-0.05-4.83,2.16-5.85
							c2.21-1.02,4.83-0.05,5.85,2.16l25.72,55.85c1.02,2.21,0.05,4.83-2.16,5.85C436.31,477.59,435.69,477.72,435.07,477.72z"/>
					</g>
					<g>
						<path class="st1" d="M480.07,506.72c-1.67,0-3.26-0.95-4.01-2.57l-25.72-55.85c-1.02-2.21-0.05-4.83,2.16-5.85
							c2.21-1.02,4.83-0.05,5.85,2.16l25.72,55.85c1.02,2.21,0.05,4.83-2.16,5.85C481.31,506.59,480.69,506.72,480.07,506.72z"/>
					</g>
					<g>
						<path class="st1" d="M407.07,548.72c-1.67,0-3.26-0.95-4.01-2.57l-25.72-55.85c-1.02-2.21-0.05-4.83,2.16-5.85
							c2.21-1.02,4.83-0.05,5.85,2.16l25.72,55.85c1.02,2.21,0.05,4.83-2.16,5.85C408.31,548.59,407.69,548.72,407.07,548.72z"/>
					</g>
					<g>
						<path d="M406.65,473.31c-1.67,0-3.26-0.95-4.01-2.57l-25.72-55.85c-1.02-2.21-0.05-4.83,2.16-5.85
							c2.21-1.02,4.83-0.05,5.85,2.16l25.72,55.85c1.02,2.21,0.05,4.83-2.16,5.85C407.9,473.18,407.27,473.31,406.65,473.31z"/>
					</g>
					<g>
						<path class="st39" d="M278.81,248.26c-2.53-8.66,5.8-19.32,22.44-13.44c16.63,5.88,27.03,30.84,24.22,47.96"/>
						<path class="st39" d="M279.6,250.98c-2.42-8.28,9.44-18.05,22.5-10.13c14.46,8.77,21.95,30.9,17.18,52.49"/>
						<path class="st39" d="M280.22,252.46c-1.85-8,10.97-13.49,22.33-5.24c13.03,9.46,19.04,54.52,2.69,63.91"/>
					</g>
					<g>
						<path class="st39" d="M281.02,248.47c2.53-8.78-5.8-19.58-22.44-13.62c-16.63,5.96-27.03,31.25-24.22,48.6"/>
						<path class="st39" d="M280.23,251.22c2.42-8.39-9.44-18.29-22.5-10.27c-14.46,8.89-21.95,31.31-17.18,53.19"/>
						<path class="st39" d="M279.61,252.72c1.85-8.11-10.97-13.67-22.33-5.31c-13.03,9.59-19.04,55.21-2.69,64.72"/>
					</g>
					<g>
						<path d="M341.68,250.53c0,0-3.29,6.26-1.32,10.38c1.98,4.12,2.96,8.73,2.96,8.73s5.43,47.93,6.92,52.87
							c1.48,4.94,4.12,17.29,6.42,17.29s2.96-5.27,0-25.2c-2.96-19.93-8.23-45.78-8.23-45.78S350.41,249.38,341.68,250.53z"/>
					</g>
					<g>
						<path class="st40" d="M282.11,217.1c-0.99,0-1.93-0.59-2.32-1.57c-0.11-0.28-2.78-7.12-2.59-21.9
							c0.07-5.55,3.82-15.2,11.89-23.28c7.23-7.25,20.64-15.89,43.43-15.89c1.38,0,2.5,1.12,2.5,2.5c0,1.38-1.12,2.5-2.5,2.5
							c-21.07,0-33.32,7.84-39.89,14.42c-7.51,7.52-10.38,16.14-10.43,19.81c-0.17,13.64,2.21,19.93,2.24,19.99
							c0.5,1.28-0.13,2.73-1.41,3.24C282.73,217.05,282.42,217.1,282.11,217.1z"/>
					</g>
					<g>
						<path class="st40" d="M280.93,211.1c-0.61-0.51-3.62-3.49-2.59-12.53c0.31-2.7,1.96-6.57,4.43-10.34
							c2.11-3.23,5.84-7.98,11.63-12.25c7.95-5.86,21.61-12.06,41.54-8.3c1.36,0.26,2.25,1.57,1.99,2.92
							c-0.26,1.36-1.56,2.25-2.92,1.99c-18.15-3.43-30.49,2.13-37.64,7.41c-9.16,6.76-13.67,15.79-14.05,19.13
							c-0.72,6.32,0.92,8.21,0.94,8.23c-0.08-0.09-0.13-0.12-0.13-0.12L280.93,211.1z"/>
					</g>
					<g>
						<path class="st40" d="M282.03,215.06c-0.87,0-1.72-0.45-2.18-1.27c-0.29-0.51-2.74-5.17,0.09-12.99
							c1.42-3.94,7.28-11.77,17.58-17.18c8.6-4.52,22.77-8.49,41.46-1.74c1.3,0.47,1.97,1.9,1.5,3.2c-0.47,1.3-1.9,1.97-3.2,1.5
							c-16.97-6.13-29.72-2.59-37.43,1.46c-9.31,4.89-14.26,11.85-15.2,14.45c-2.03,5.61-0.46,8.78-0.44,8.81
							c0.68,1.2,0.26,2.73-0.94,3.41C282.87,214.95,282.45,215.06,282.03,215.06z"/>
					</g>
					<g>
						<path class="st40" d="M282.28,217.32c-1.08,0-2.08-0.71-2.41-1.79c-0.17-0.55-1.52-5.58,2.56-12.39
							c2.07-3.45,9.02-9.75,19.71-12.94c8.91-2.67,22.97-3.79,39.29,5.99c1.19,0.71,1.57,2.25,0.86,3.43
							c-0.71,1.19-2.25,1.57-3.43,0.86c-27.04-16.2-48.73-0.45-52.14,5.23c-2.94,4.91-2.1,8.26-2.06,8.4c0.4,1.32-0.35,2.7-1.67,3.1
							C282.76,217.28,282.52,217.32,282.28,217.32z"/>
					</g>
					<g>
						<path class="st40" d="M270.56,269.15c-1.52,0.24-2.73-0.09-3.49-0.42c-1.99-0.85-3.43-2.72-3.76-4.86
							c-0.35-2.24,0.55-4.62,2.3-6.05c1.4-1.15,3.07-1.45,4.58-0.83c0.7,0.29,1.05,1.1,0.77,1.82c-0.27,0.72-1.06,1.07-1.76,0.78
							c-0.8-0.33-1.53,0.13-1.89,0.43c-0.97,0.8-1.51,2.21-1.32,3.44c0.18,1.17,1.01,2.23,2.11,2.7c1.37,0.59,3.03,0.24,4.67-0.98
							c4.14-3.09,6.5-13.84,5.07-23c-0.12-0.76,0.38-1.48,1.12-1.59c0.74-0.12,1.44,0.41,1.56,1.17
							c1.64,10.42-1.12,21.94-6.14,25.69C272.98,268.48,271.69,268.97,270.56,269.15z"/>
					</g>
					<g>
						<path class="st40" d="M288.92,269.15c1.52,0.24,2.73-0.09,3.49-0.42c1.99-0.85,3.43-2.72,3.76-4.86
							c0.35-2.24-0.55-4.62-2.3-6.05c-1.4-1.15-3.07-1.45-4.58-0.83c-0.7,0.29-1.05,1.1-0.77,1.82c0.27,0.72,1.06,1.07,1.76,0.78
							c0.8-0.33,1.53,0.13,1.89,0.43c0.97,0.8,1.51,2.21,1.32,3.44c-0.18,1.17-1.01,2.23-2.11,2.7c-1.37,0.59-3.03,0.24-4.67-0.98
							c-4.14-3.09-6.5-13.84-5.07-23c0.12-0.76-0.38-1.48-1.12-1.59c-0.74-0.12-1.44,0.41-1.56,1.17
							c-1.64,10.42,1.12,21.94,6.14,25.69C286.5,268.48,287.79,268.97,288.92,269.15z"/>
					</g>
					<g>
						<path class="st40" d="M277.88,217.11c-0.31,0-0.62-0.06-0.93-0.18c-1.28-0.51-1.9-1.96-1.4-3.24c0.04-0.1,2.41-6.4,2.23-19.99
							c-0.05-3.67-2.92-12.29-10.43-19.81c-6.57-6.58-18.82-14.42-39.89-14.42c-1.38,0-2.5-1.12-2.5-2.5c0-1.38,1.12-2.5,2.5-2.5
							c22.79,0,36.19,8.64,43.43,15.89c8.07,8.08,11.82,17.73,11.89,23.28c0.19,14.78-2.47,21.62-2.59,21.9
							C279.81,216.51,278.87,217.11,277.88,217.11z"/>
					</g>
					<g>
						<path class="st40" d="M279.07,211.1l-3.19-3.86c0,0-0.05,0.03-0.13,0.12c0.02-0.02,1.65-1.91,0.94-8.23
							c-0.38-3.34-4.89-12.37-14.05-19.13c-7.15-5.27-19.48-10.84-37.64-7.41c-1.36,0.25-2.67-0.64-2.92-1.99
							c-0.26-1.36,0.64-2.67,1.99-2.92c19.93-3.77,33.59,2.43,41.54,8.3c5.79,4.27,9.52,9.01,11.63,12.25
							c2.47,3.78,4.12,7.64,4.43,10.34C282.69,207.61,279.68,210.6,279.07,211.1z"/>
					</g>
					<g>
						<path class="st40" d="M277.97,215.06c-0.42,0-0.84-0.11-1.24-0.33c-1.19-0.68-1.61-2.18-0.96-3.38
							c0.1-0.19,1.59-3.28-0.42-8.85c-2.36-6.54-21.53-27.15-52.64-15.91c-1.3,0.47-2.73-0.2-3.2-1.5c-0.47-1.3,0.2-2.73,1.5-3.2
							c18.69-6.75,32.86-2.78,41.46,1.74c10.3,5.41,16.16,13.24,17.58,17.18c2.82,7.81,0.37,12.48,0.09,12.99
							C279.69,214.6,278.84,215.06,277.97,215.06z"/>
					</g>
					<g>
						<path class="st40" d="M277.74,217.3c-0.24,0-0.49-0.04-0.73-0.11c-1.31-0.4-2.05-1.78-1.68-3.09c0.05-0.2,0.85-3.54-2.06-8.4
							c-3.4-5.68-25.1-21.44-52.14-5.23c-1.19,0.71-2.72,0.32-3.43-0.86c-0.71-1.19-0.32-2.72,0.86-3.43
							c16.33-9.78,30.38-8.65,39.29-5.99c10.68,3.2,17.64,9.49,19.71,12.94c4.08,6.82,2.73,11.84,2.56,12.39
							C279.8,216.61,278.81,217.3,277.74,217.3z"/>
					</g>
					<line class="st41" x1="279.79" y1="166.8" x2="279.79" y2="272.13"/>
					<path class="st42" d="M386.85,541.21c0,0-8.45,9.05-17.13,2.57c-8.68-6.49-21.72-30.99-41.46-34.3
						c-19.73-3.31-22.62-21.27-22.62-21.27s-15.36,0.1-17.98-7.26s0.17-19.65,0.17-19.65s-6.02-20.66-29.72-17.41
						c-11.49,1.57-14.86,3.09-14.86,3.09s-36.06-38.03,0.41-67.29s73.59,22.93,80.62,32.17c22,28.9,24.23,71.51,37.17,92.57
						c12.53,20.39,15.26,19.06,19.74,20.52C385.67,526.39,395.61,533.05,386.85,541.21z"/>
					<g>
						<path class="st14" d="M281.36,108.76c8.09,0,25.9,6.48,37.24,10.25c11.33,3.78,30.22,39.3,35.08,64.66
							c4.37,22.8-5.22,32.09-7.98,50.58l-6.87-2.12c-1.29-5.18-6.61-23.1-6.61-25.35c0-3.24,3.66-4.76,3.72-17.64
							c0.06-12.88-13.55-36.23-16.25-41.08c-2.7-4.86-14.57-2.7-28.06-1.08c-13.49,1.62-17.27-2.56-17.27-2.56l-1.08-35.66
							C273.26,108.76,273.26,108.76,281.36,108.76z"/>
						<g>
							<path class="st14" d="M277.25,108.76c-8.09,0-25.9,6.48-37.24,10.25c-11.33,3.78-30.22,39.3-35.08,64.66
								c-4.37,22.8,5.22,32.09,7.98,50.58l6.28-1.27c1.29-5.18,6.61-23.1,6.61-25.35c0-3.24-3.07-5.61-3.13-18.49
								c-0.06-12.88,13.55-36.23,16.25-41.08c2.7-4.86,14.57-2.7,28.06-1.08c13.49,1.62,17.27-2.56,17.27-2.56l1.08-35.66
								C285.35,108.76,285.35,108.76,277.25,108.76z"/>
						</g>
					</g>
					<g>
						<path d="M454.34,470.36c-1.68,0-3.29-0.97-4.02-2.6l-40.2-86.8c-1-2.22-0.01-4.83,2.21-5.83c2.22-1,4.83-0.01,5.83,2.21
							l40.2,86.8c1,2.22,0.01,4.83-2.21,5.83C455.56,470.23,454.94,470.36,454.34,470.36z"/>
					</g>
				</g>
			</g>
		</g>
	</g>
</switch>
</svg>